cohort,sub_cohort,universal_patient_id,samples,sample_type,tumour_samples,technique,apaf1,caspase3,caspase9,smac,xiap
GBM,this_study,GBM010,1288,patient,newly_diagnosed,WB,0.04218776856,0.11340798,0.0034022394,0.01428940548,0.00714470274
GBM,this_study,GBM011,1291,patient,newly_diagnosed,WB,0.084894678,0.2282115,0.006846345,0.028754649,0.0143773245
GBM,this_study,GBM001,1303,patient,newly_diagnosed,WB,0.16054905456,0.43158348,0.0129475044,0.05437951848,0.02718975924
GBM,this_study,GBM030,131,patient,recurrent,WB,0.0235854986064275,0.0634018779742675,0.00190205633922802,0.0079886366247577,0.00399431831237885
GBM,this_study,GBM002,1340,patient,newly_diagnosed,WB,0.1811419776,0.4869408,0.014608224,0.0613545408,0.0306772704
GBM,this_study,GBM012,1391,patient,newly_diagnosed,WB,0.05634567936,0.15146688,0.0045440064,0.01908482688,0.00954241344
GBM,this_study,GBM028,1393,patient,recurrent,WB,0.0240485778880506,0.0646467147528243,0.00193940144258473,0.00814548605885586,0.00407274302942793
GBM,this_study,GBM003,1402,patient,newly_diagnosed,WB,0.10657603584,0.28649472,0.0085948416,0.03609833472,0.01804916736
GBM,this_study,GBM029,1476,patient,recurrent,WB,0.0458208477772565,0.123174321981872,0.00369522965945617,0.0155199645697159,0.00775998228485796
GBM,this_study,GBM023,172,patient,recurrent,WB,0.0740702971591944,0.199113702040845,0.00597341106122535,0.0250883264571465,0.0125441632285732
GBM,this_study,GBM004,180,patient,newly_diagnosed,WB,0.07469305416,0.20078778,0.0060236334,0.02529926028,0.01264963014
GBM,this_study,GBM024,192,patient,recurrent,WB,0.0612600978061757,0.164677682274666,0.00494033046823998,0.0207493879666079,0.010374693983304
GBM,this_study,GBM022,22,patient,recurrent,WB,0.0566532670725391,0.152293728689621,0.00456881186068864,0.0191890098148923,0.00959450490744614
GBM,this_study,GBM032,232,patient,recurrent,WB,0.0313403035983726,0.0842481279526144,0.00252744383857843,0.0106152641220294,0.00530763206101471
GBM,this_study,GBM005,238,patient,newly_diagnosed,WB,0.08959277016,0.24084078,0.0072252234,0.03034593828,0.01517296914
GBM,this_study,GBM006,259,patient,newly_diagnosed,WB,0.08842474224,0.23770092,0.0071310276,0.02995031592,0.01497515796
GBM,this_study,GBM007,268,patient,newly_diagnosed,WB,0.1191500748,0.3202959,0.009608877,0.0403572834,0.0201786417
GBM,this_study,GBM008,273,patient,newly_diagnosed,WB,0.09574947432,0.25739106,0.0077217318,0.03243127356,0.01621563678
GBM,this_study,GBM013,286,patient,newly_diagnosed,WB,0.044390983201488,0.119330600004,0.00357991800012,0.015035655600504,0.007517827800252
GBM,this_study,GBM025,291,patient,recurrent,WB,0.0381567084551526,0.102571796922453,0.0030771539076736,0.0129240464122291,0.00646202320611456
GBM,this_study,GBM014,441,patient,newly_diagnosed,WB,0.04351163472,0.11696676,0.0035090028,0.01473781176,0.00736890588
GBM,this_study,GBM026,474,patient,recurrent,WB,0.0637337654137868,0.171327326381147,0.00513981979143441,0.0215872431240245,0.0107936215620123
GBM,this_study,GBM009,495,patient,newly_diagnosed,WB,0.0538699896,0.1448118,0.004344354,0.0182462868,0.0091231434
GBM,this_study,GBM027,619,patient,recurrent,WB,0.0446801098213566,0.120107822100421,0.00360323466301263,0.0151335855846531,0.00756679279232653
GBM,this_study,GBM031,811,patient,recurrent,WB,0.0137465498934194,0.0369530911113425,0.00110859273334027,0.00465608948002915,0.00232804474001458
GBM,MurphyCDDis2013,GBM034,P1,patient,newly_diagnosed,WB,0.05968818,1.4367983310035,0.00070483,0.242820386,0.033453762
GBM,MurphyCDDis2013,GBM042,P11,patient,newly_diagnosed,WB,0.230241806,0.721727374330503,0.000213435,0.1631951,0.024512734
GBM,MurphyCDDis2013,GBM043,P12,patient,newly_diagnosed,WB,0.075482813,0.0600580364706502,0.010735528,0.114440185,0.11300184
GBM,MurphyCDDis2013,GBM044,P13,patient,newly_diagnosed,WB,0.000514627,0.0746883498207724,0.005747455,0.129701106,0.032280614
GBM,MurphyCDDis2013,GBM045,P14,patient,newly_diagnosed,WB,0.057309744,0.203730798818832,0.006367557,0.075388804,0.02090712
GBM,MurphyCDDis2013,GBM046,P16,patient,newly_diagnosed,WB,0.219285767,0.0385312754469099,0.002657173,0.224355317,0.013545961
GBM,MurphyCDDis2013,GBM047,P17,patient,newly_diagnosed,WB,0.134214808,0.0102088004525915,0.005496731,0.116119793,0.013823429
GBM,MurphyCDDis2013,GBM052,P18,patient,recurrent,WB,0.234740256,0.00509196873698406,0.001071419,0.066522715,0.020317345
GBM,MurphyCDDis2013,GBM053,P19,patient,recurrent,WB,0.294165082,0.181112508196391,0.010426519,0.076702404,0.028478417
GBM,MurphyCDDis2013,GBM035,P2,patient,newly_diagnosed,WB,0.187616846,3.16666391676118,0.006862104,0.195901362,0.029689486
GBM,MurphyCDDis2013,GBM048,P20,patient,newly_diagnosed,WB,0.17308337,0.162503005975351,0.00941146,0.092806417,0.021620945
GBM,MurphyCDDis2013,GBM049,P21,patient,newly_diagnosed,WB,0.348549878,0.405823355525668,0.023152391,0.144432264,0.035631105
GBM,MurphyCDDis2013,GBM050,P22,patient,newly_diagnosed,WB,0.187744276,0.233042897990911,0.001458238,0.23282014,0.010970735
GBM,MurphyCDDis2013,GBM054,P23,patient,recurrent,WB,0.100795169,0.0172907936799516,0.002909085,0.114494727,0.006848493
GBM,MurphyCDDis2013,GBM036,P3,patient,newly_diagnosed,WB,0.152794257,1.22304433848735,0.007951342,0.169253681,0.025724417
GBM,MurphyCDDis2013,GBM037,P4,patient,newly_diagnosed,WB,0.144301892,1.80386293939384,0.003562266,0.051499784,0.015039046
GBM,MurphyCDDis2013,GBM038,P5,patient,newly_diagnosed,WB,0.155134452,0.1183544698617,0.00649258,0.047878597,0.009287801
GBM,MurphyCDDis2013,GBM039,P6,patient,newly_diagnosed,WB,0.266390447,0.757353177579479,0.004006033,0.158347841,0.01175561
GBM,MurphyCDDis2013,GBM040,P7,patient,newly_diagnosed,WB,0.302675514,1.45914765575627,0.003190079,0.476115612,0.012943125
GBM,MurphyCDDis2013,GBM051,P8,patient,recurrent,WB,0.181705788,0.264736711549526,0.006775408,0.104264521,0.019680301
GBM,MurphyCDDis2013,GBM041,P9,patient,newly_diagnosed,WB,0.269276863,0.907099012062395,0.004928836,0.222563765,0.047743313
